{"name":"I get all users from application","id":"testing-different-request-on-the-product:I get all users from application","testSteps":[{"number":1,"description":"Given I am on homepage of application of user","duration":306,"startTime":"2022-06-20T10:52:59.384+01:00[Europe/London]","result":"SUCCESS","precondition":false},{"number":2,"description":"When I send Get request to list endpoint of user","duration":4528,"startTime":"2022-06-20T10:52:59.693+01:00[Europe/London]","result":"SUCCESS","precondition":false,"children":[{"number":3,"description":"Getting all product from application","duration":4498,"startTime":"2022-06-20T10:52:59.723+01:00[Europe/London]","result":"SUCCESS","precondition":false,"children":[{"number":4,"description":"GET https://reqres.in/api/users\r\r","duration":0,"startTime":"2022-06-20T10:53:04.208+01:00[Europe/London]","result":"SUCCESS","restQuery":{"method":"GET","path":"https://reqres.in/api/users\r\r","content":"\r","contentType":"null","requestHeaders":"Accept\u003d*/*\r\r","requestCookies":"\r\r","responseHeaders":"Date: Mon, 20 Jun 2022 09:53:04 GMT\nContent-Type: application/json; charset\u003dutf-8\nTransfer-Encoding: chunked\nConnection: keep-alive\nX-Powered-By: Express\nAccess-Control-Allow-Origin: *\nEtag: W/\"3e4-2RLXvr5wTg9YQ6aH95CkYoFNuO8\"\nVia: 1.1 vegur\nCache-Control: max-age\u003d14400\nCF-Cache-Status: HIT\nAge: 3176\nExpect-CT: max-age\u003d604800, report-uri\u003d\"https://report-uri.cloudflare.com/cdn-cgi/beacon/expect-ct\"\nReport-To: {\"endpoints\":[{\"url\":\"https:\\/\\/a.nel.cloudflare.com\\/report\\/v3?s\u003dBFw%2BJ43t%2F6fgSGeiy9U6vkIIYHar3bjFvuvoOg1o9KctrPPhKcNyeyDioG9xuWQXqFtKfkI%2BHibPzuyZtXBLVVBkgGmBQVRwdK1lrMjfUcPLw2LHuyOhIv%2Bo%2Fg%3D%3D\"}],\"group\":\"cf-nel\",\"max_age\":604800}\nNEL: {\"success_fraction\":0,\"report_to\":\"cf-nel\",\"max_age\":604800}\nVary: Accept-Encoding\nServer: cloudflare\nCF-RAY: 71e39d812c6776ff-LHR\nContent-Encoding: gzip\r","responseCookies":"\r","responseBody":"{\n    \"page\": 1,\n    \"per_page\": 6,\n    \"total\": 12,\n    \"total_pages\": 2,\n    \"data\": [\n        {\n            \"id\": 1,\n            \"email\": \"george.bluth@reqres.in\",\n            \"first_name\": \"George\",\n            \"last_name\": \"Bluth\",\n            \"avatar\": \"https://reqres.in/img/faces/1-image.jpg\"\n        },\n        {\n            \"id\": 2,\n            \"email\": \"janet.weaver@reqres.in\",\n            \"first_name\": \"Janet\",\n            \"last_name\": \"Weaver\",\n            \"avatar\": \"https://reqres.in/img/faces/2-image.jpg\"\n        },\n        {\n            \"id\": 3,\n            \"email\": \"emma.wong@reqres.in\",\n            \"first_name\": \"Emma\",\n            \"last_name\": \"Wong\",\n            \"avatar\": \"https://reqres.in/img/faces/3-image.jpg\"\n        },\n        {\n            \"id\": 4,\n            \"email\": \"eve.holt@reqres.in\",\n            \"first_name\": \"Eve\",\n            \"last_name\": \"Holt\",\n            \"avatar\": \"https://reqres.in/img/faces/4-image.jpg\"\n        },\n        {\n            \"id\": 5,\n            \"email\": \"charles.morris@reqres.in\",\n            \"first_name\": \"Charles\",\n            \"last_name\": \"Morris\",\n            \"avatar\": \"https://reqres.in/img/faces/5-image.jpg\"\n        },\n        {\n            \"id\": 6,\n            \"email\": \"tracey.ramos@reqres.in\",\n            \"first_name\": \"Tracey\",\n            \"last_name\": \"Ramos\",\n            \"avatar\": \"https://reqres.in/img/faces/6-image.jpg\"\n        }\n    ],\n    \"support\": {\n        \"url\": \"https://reqres.in/#support-heading\",\n        \"text\": \"To keep ReqRes free, contributions towards server costs are appreciated!\"\n    }\n}","statusCode":200},"precondition":false}]}]},{"number":5,"description":"Then I must get back a valid status code 200 of user","duration":25,"startTime":"2022-06-20T10:53:04.222+01:00[Europe/London]","result":"SUCCESS","precondition":false}],"userStory":{"id":"testing-different-request-on-the-product","storyName":"Testing different request on the product","path":"category.feature","type":"feature"},"featureTag":{"name":"Testing different request on the product","type":"feature"},"title":"I get all users from application","description":"","tags":[{"name":"Testing different request on the product","type":"feature"},{"name":"user","type":"tag"}],"startTime":"2022-06-20T10:52:59.242+01:00[Europe/London]","duration":5007,"projectKey":"","manual":false,"result":"SUCCESS"}