{"name":"I verify following data response","id":"testing-different-request-on-the-product:I verify following data response","testSteps":[{"number":1,"description":"Given I am on homepage of application of user","duration":3,"startTime":"2022-06-20T10:53:08.770+01:00[Europe/London]","result":"SUCCESS","precondition":false},{"number":2,"description":"When I send Get request to list endpoint of user","duration":353,"startTime":"2022-06-20T10:53:08.774+01:00[Europe/London]","result":"SUCCESS","precondition":false,"children":[{"number":3,"description":"Getting all product from application","duration":353,"startTime":"2022-06-20T10:53:08.774+01:00[Europe/London]","result":"SUCCESS","precondition":false,"children":[{"number":4,"description":"GET https://reqres.in/api/users\r\r","duration":0,"startTime":"2022-06-20T10:53:09.126+01:00[Europe/London]","result":"SUCCESS","restQuery":{"method":"GET","path":"https://reqres.in/api/users\r\r","content":"\r","contentType":"null","requestHeaders":"Accept\u003d*/*\r\r","requestCookies":"\r\r","responseHeaders":"Date: Mon, 20 Jun 2022 09:53:09 GMT\nContent-Type: application/json; charset\u003dutf-8\nTransfer-Encoding: chunked\nConnection: keep-alive\nX-Powered-By: Express\nAccess-Control-Allow-Origin: *\nEtag: W/\"3e4-2RLXvr5wTg9YQ6aH95CkYoFNuO8\"\nVia: 1.1 vegur\nCache-Control: max-age\u003d14400\nCF-Cache-Status: HIT\nAge: 3167\nExpect-CT: max-age\u003d604800, report-uri\u003d\"https://report-uri.cloudflare.com/cdn-cgi/beacon/expect-ct\"\nReport-To: {\"endpoints\":[{\"url\":\"https:\\/\\/a.nel.cloudflare.com\\/report\\/v3?s\u003d0cShwfmAq1czm4q1PtKd3hgzaESm8N%2F4E237E4OEuoFBLEsuCaMiAavHt5vT3LKNydaKX6JbcbWprbTuULq7DLnsVBI81nuiJPUTg1xciYDMDM%2ByNKTXSxukwQ%3D%3D\"}],\"group\":\"cf-nel\",\"max_age\":604800}\nNEL: {\"success_fraction\":0,\"report_to\":\"cf-nel\",\"max_age\":604800}\nVary: Accept-Encoding\nServer: cloudflare\nCF-RAY: 71e39da2287b71b6-LHR\nContent-Encoding: gzip\r","responseCookies":"\r","responseBody":"{\n    \"page\": 1,\n    \"per_page\": 6,\n    \"total\": 12,\n    \"total_pages\": 2,\n    \"data\": [\n        {\n            \"id\": 1,\n            \"email\": \"george.bluth@reqres.in\",\n            \"first_name\": \"George\",\n            \"last_name\": \"Bluth\",\n            \"avatar\": \"https://reqres.in/img/faces/1-image.jpg\"\n        },\n        {\n            \"id\": 2,\n            \"email\": \"janet.weaver@reqres.in\",\n            \"first_name\": \"Janet\",\n            \"last_name\": \"Weaver\",\n            \"avatar\": \"https://reqres.in/img/faces/2-image.jpg\"\n        },\n        {\n            \"id\": 3,\n            \"email\": \"emma.wong@reqres.in\",\n            \"first_name\": \"Emma\",\n            \"last_name\": \"Wong\",\n            \"avatar\": \"https://reqres.in/img/faces/3-image.jpg\"\n        },\n        {\n            \"id\": 4,\n            \"email\": \"eve.holt@reqres.in\",\n            \"first_name\": \"Eve\",\n            \"last_name\": \"Holt\",\n            \"avatar\": \"https://reqres.in/img/faces/4-image.jpg\"\n        },\n        {\n            \"id\": 5,\n            \"email\": \"charles.morris@reqres.in\",\n            \"first_name\": \"Charles\",\n            \"last_name\": \"Morris\",\n            \"avatar\": \"https://reqres.in/img/faces/5-image.jpg\"\n        },\n        {\n            \"id\": 6,\n            \"email\": \"tracey.ramos@reqres.in\",\n            \"first_name\": \"Tracey\",\n            \"last_name\": \"Ramos\",\n            \"avatar\": \"https://reqres.in/img/faces/6-image.jpg\"\n        }\n    ],\n    \"support\": {\n        \"url\": \"https://reqres.in/#support-heading\",\n        \"text\": \"To keep ReqRes free, contributions towards server costs are appreciated!\"\n    }\n}","statusCode":200},"precondition":false}]}]},{"number":5,"description":"Then I validate page \"1\"","duration":229,"startTime":"2022-06-20T10:53:09.128+01:00[Europe/London]","result":"SUCCESS","precondition":false,"children":[{"number":6,"description":"Getting all product from application","duration":206,"startTime":"2022-06-20T10:53:09.129+01:00[Europe/London]","result":"SUCCESS","precondition":false,"children":[{"number":7,"description":"GET https://reqres.in/api/users\r\r","duration":0,"startTime":"2022-06-20T10:53:09.334+01:00[Europe/London]","result":"SUCCESS","restQuery":{"method":"GET","path":"https://reqres.in/api/users\r\r","content":"\r","contentType":"null","requestHeaders":"Accept\u003d*/*\r\r","requestCookies":"\r\r","responseHeaders":"Date: Mon, 20 Jun 2022 09:53:09 GMT\nContent-Type: application/json; charset\u003dutf-8\nTransfer-Encoding: chunked\nConnection: keep-alive\nX-Powered-By: Express\nAccess-Control-Allow-Origin: *\nEtag: W/\"3e4-2RLXvr5wTg9YQ6aH95CkYoFNuO8\"\nVia: 1.1 vegur\nCache-Control: max-age\u003d14400\nCF-Cache-Status: HIT\nAge: 3148\nExpect-CT: max-age\u003d604800, report-uri\u003d\"https://report-uri.cloudflare.com/cdn-cgi/beacon/expect-ct\"\nReport-To: {\"endpoints\":[{\"url\":\"https:\\/\\/a.nel.cloudflare.com\\/report\\/v3?s\u003dFYZGHnxCDI1CnUIxDALEAViASRhx5PkNzFY%2BwG9elJjF14La%2BeKcQgOO7Ywyl%2FsOW89K60ij6NCqPMx3ekbxGL5hYowovksuRiaMyhxPDDctFb0m2p1%2B2WcreQ%3D%3D\"}],\"group\":\"cf-nel\",\"max_age\":604800}\nNEL: {\"success_fraction\":0,\"report_to\":\"cf-nel\",\"max_age\":604800}\nVary: Accept-Encoding\nServer: cloudflare\nCF-RAY: 71e39da37c400672-LHR\nContent-Encoding: gzip\r","responseCookies":"\r","responseBody":"{\n    \"page\": 1,\n    \"per_page\": 6,\n    \"total\": 12,\n    \"total_pages\": 2,\n    \"data\": [\n        {\n            \"id\": 1,\n            \"email\": \"george.bluth@reqres.in\",\n            \"first_name\": \"George\",\n            \"last_name\": \"Bluth\",\n            \"avatar\": \"https://reqres.in/img/faces/1-image.jpg\"\n        },\n        {\n            \"id\": 2,\n            \"email\": \"janet.weaver@reqres.in\",\n            \"first_name\": \"Janet\",\n            \"last_name\": \"Weaver\",\n            \"avatar\": \"https://reqres.in/img/faces/2-image.jpg\"\n        },\n        {\n            \"id\": 3,\n            \"email\": \"emma.wong@reqres.in\",\n            \"first_name\": \"Emma\",\n            \"last_name\": \"Wong\",\n            \"avatar\": \"https://reqres.in/img/faces/3-image.jpg\"\n        },\n        {\n            \"id\": 4,\n            \"email\": \"eve.holt@reqres.in\",\n            \"first_name\": \"Eve\",\n            \"last_name\": \"Holt\",\n            \"avatar\": \"https://reqres.in/img/faces/4-image.jpg\"\n        },\n        {\n            \"id\": 5,\n            \"email\": \"charles.morris@reqres.in\",\n            \"first_name\": \"Charles\",\n            \"last_name\": \"Morris\",\n            \"avatar\": \"https://reqres.in/img/faces/5-image.jpg\"\n        },\n        {\n            \"id\": 6,\n            \"email\": \"tracey.ramos@reqres.in\",\n            \"first_name\": \"Tracey\",\n            \"last_name\": \"Ramos\",\n            \"avatar\": \"https://reqres.in/img/faces/6-image.jpg\"\n        }\n    ],\n    \"support\": {\n        \"url\": \"https://reqres.in/#support-heading\",\n        \"text\": \"To keep ReqRes free, contributions towards server costs are appreciated!\"\n    }\n}","statusCode":200},"precondition":false}]}]},{"number":8,"description":"And I validate per_page \"6\"","duration":18,"startTime":"2022-06-20T10:53:09.365+01:00[Europe/London]","result":"SUCCESS","precondition":false},{"number":9,"description":"And I validate totalID \"2\"","duration":15,"startTime":"2022-06-20T10:53:09.383+01:00[Europe/London]","result":"SUCCESS","precondition":false},{"number":10,"description":"And I validate name of Id \"Eve\"","duration":18,"startTime":"2022-06-20T10:53:09.398+01:00[Europe/London]","result":"SUCCESS","precondition":false},{"number":11,"description":"And I validate list of data 6","duration":14,"startTime":"2022-06-20T10:53:09.418+01:00[Europe/London]","result":"SUCCESS","precondition":false},{"number":12,"description":"And I validate avatar \"https://reqres.in/img/faces/6-image.jpg\"","duration":11,"startTime":"2022-06-20T10:53:09.435+01:00[Europe/London]","result":"SUCCESS","precondition":false},{"number":13,"description":"And I validate supportUrl \"https://reqres.in/#support-heading\"","duration":44,"startTime":"2022-06-20T10:53:09.449+01:00[Europe/London]","result":"SUCCESS","precondition":false},{"number":14,"description":"And I validate supportText \"To keep ReqRes free, contributions towards server costs are appreciated!\"","duration":15,"startTime":"2022-06-20T10:53:09.493+01:00[Europe/London]","result":"SUCCESS","precondition":false}],"userStory":{"id":"testing-different-request-on-the-product","storyName":"Testing different request on the product","path":"category.feature","type":"feature"},"featureTag":{"name":"Testing different request on the product","type":"feature"},"title":"I verify following data response","description":"","tags":[{"name":"Testing different request on the product","type":"feature"},{"name":"user","type":"tag"},{"name":"Test","type":"tag"}],"startTime":"2022-06-20T10:53:08.768+01:00[Europe/London]","duration":740,"projectKey":"","manual":false,"result":"SUCCESS"}